<svg width="48" height="48" viewBox="0 0 48 48" fill="none" xmlns="http://www.w3.org/2000/svg">
    <mask id="mask0_1323_662" style="mask-type:luminance" maskUnits="userSpaceOnUse" x="0" y="0" width="48" height="48">
        <path d="M24 48C37.2548 48 48 37.2548 48 24C48 10.7452 37.2548 0 24 0C10.7452 0 0 10.7452 0 24C0 37.2548 10.7452 48 24 48Z" fill="white"/>
    </mask>
    <g mask="url(#mask0_1323_662)">
        <path d="M71.9504 0H-24V47.9952H71.9504V0Z" fill="white"/>
        <path d="M19.1776 28.7824V47.9952H28.7728V28.7824H71.9504V19.1872H28.7728V0H19.1776V19.1872H-24V28.7824H19.1776Z" fill="#CF142B"/>
        <path d="M31.9727 15.536V0H63.0383L31.9727 15.536Z" fill="#00247D"/>
        <path d="M31.9727 32.4609V47.9969H63.0383L31.9727 32.4609Z" fill="#00247D"/>
        <path d="M15.9758 32.4609V47.9969H-15.0898L15.9758 32.4609Z" fill="#00247D"/>
        <path d="M15.9758 15.536V0H-15.0898L15.9758 15.536Z" fill="#00247D"/>
        <path d="M71.9499 0H66.6203L34.6875 15.9984H40.0171L71.9995 0" fill="#CF142B"/>
        <path d="M13.2624 31.9961L7.9328 31.9977L-24 47.9945H-18.6704L13.312 31.9961" fill="#CF142B"/>
        <path d="M2.6448 16.0096H7.9744L-24 0V2.6832L2.6448 16.0096Z" fill="#CF142B"/>
        <path d="M45.2866 31.9922H39.957L71.9314 48.0018V45.3186L45.2866 31.9922Z" fill="#CF142B"/>
    </g>
</svg>
