<svg width="48" height="48" viewBox="0 0 48 48" fill="none" xmlns="http://www.w3.org/2000/svg">
    <mask id="mask0_1323_650" style="mask-type:luminance" maskUnits="userSpaceOnUse" x="0" y="0" width="48" height="48">
        <path d="M24 48C37.2548 48 48 37.2548 48 24C48 10.7452 37.2548 0 24 0C10.7452 0 0 10.7452 0 24C0 37.2548 10.7452 48 24 48Z" fill="white"/>
    </mask>
    <g mask="url(#mask0_1323_650)">
        <path d="M48 0H0V48H48V0Z" fill="#E30A17"/>
        <path d="M19.6172 36C26.2446 36 31.6172 30.6274 31.6172 24C31.6172 17.3726 26.2446 12 19.6172 12C12.9898 12 7.61719 17.3726 7.61719 24C7.61719 30.6274 12.9898 36 19.6172 36Z" fill="white"/>
        <path d="M22.6156 33.5984C27.9176 33.5984 32.2156 29.3004 32.2156 23.9984C32.2156 18.6965 27.9176 14.3984 22.6156 14.3984C17.3137 14.3984 13.0156 18.6965 13.0156 23.9984C13.0156 29.3004 17.3137 33.5984 22.6156 33.5984Z" fill="#E30A17"/>
        <path d="M29.1172 23.9986L39.9716 27.525L33.2628 18.293V29.7042L39.9716 20.4722L29.1172 23.9986Z" fill="white"/>
    </g>
</svg>
