<svg width="260" height="260" viewBox="0 0 260 260" fill="none" xmlns="http://www.w3.org/2000/svg">
  <circle cx="130" cy="130" r="127.5" stroke="black" stroke-width="5"/>
  <g clip-path="url(#clip0_0_1)">
    <path d="M175.5 85.5L130 131L84.5 85.5C82.5 83.5 79 83.5 77 85.5C75 87.5 75 91 77 93L122.5 138.5L77 184C75 186 75 189.5 77 191.5C79 193.5 82.5 193.5 84.5 191.5L130 146L175.5 191.5C177.5 193.5 181 193.5 183 191.5C185 189.5 185 186 183 184L137.5 138.5L183 93C185 91 185 87.5 183 85.5C181 83.5 177.5 83.5 175.5 85.5Z" fill="black" stroke="white" stroke-width="5"/>
  </g>
  <defs>
    <clipPath id="clip0_0_1">
      <rect width="170" height="170" fill="white" transform="translate(45 45)"/>
    </clipPath>
  </defs>
</svg>
